%YAML 1.1
%TAG !u! tag:unity3d.com,2011:
--- !u!114 &11400000
MonoBehaviour:
  m_ObjectHideFlags: 0
  m_CorrespondingSourceObject: {fileID: 0}
  m_PrefabInstance: {fileID: 0}
  m_PrefabAsset: {fileID: 0}
  m_GameObject: {fileID: 0}
  m_Enabled: 1
  m_EditorHideFlags: 0
  m_Script: {fileID: 11500000, guid: d66c07a932be6478aa951fb2eba1815c, type: 3}
  m_Name: 007-ADD_PHOTO_TO_GALLERY
  m_EditorClassIdentifier: 
  url: https://firebasestorage.googleapis.com/v0/b/nasan-si-lola.appspot.com/o/arrive.jpg?alt=media&token=ee5c5b2c-f8d4-42e3-9285-c25e250c5b3a
  id: arrive
