%YAML 1.1
%TAG !u! tag:unity3d.com,2011:
--- !u!114 &11400000
MonoBehaviour:
  m_ObjectHideFlags: 0
  m_CorrespondingSourceObject: {fileID: 0}
  m_PrefabInstance: {fileID: 0}
  m_PrefabAsset: {fileID: 0}
  m_GameObject: {fileID: 0}
  m_Enabled: 1
  m_EditorHideFlags: 0
  m_Script: {fileID: 11500000, guid: 5392ad35350fd4cd58f6878c68621777, type: 3}
  m_Name: 053-CHAT_IN
  m_EditorClassIdentifier: 
  sender: 3
  message: 'gud am ibinilin k sakin ng lola mo. '
  date: Jan 02
  time: 12:10 PM
