%YAML 1.1
%TAG !u! tag:unity3d.com,2011:
--- !u!114 &11400000
MonoBehaviour:
  m_ObjectHideFlags: 0
  m_CorrespondingSourceObject: {fileID: 0}
  m_PrefabInstance: {fileID: 0}
  m_PrefabAsset: {fileID: 0}
  m_GameObject: {fileID: 0}
  m_Enabled: 1
  m_EditorHideFlags: 0
  m_Script: {fileID: 11500000, guid: 20f97dbb6ea294c74afbe045aeef1fd8, type: 3}
  m_Name: 112-CHAT_OUT
  m_EditorClassIdentifier: 
  receiver: 0
  message1: Nga pala....
  message2: Ui alam mo ba...
  answer: -1
  date: Jan 02
  time: 5:05 PM
