%YAML 1.1
%TAG !u! tag:unity3d.com,2011:
--- !u!114 &11400000
MonoBehaviour:
  m_ObjectHideFlags: 0
  m_CorrespondingSourceObject: {fileID: 0}
  m_PrefabInstance: {fileID: 0}
  m_PrefabAsset: {fileID: 0}
  m_GameObject: {fileID: 0}
  m_Enabled: 1
  m_EditorHideFlags: 0
  m_Script: {fileID: 11500000, guid: eaeafe960671442d09573e37b2a8eafd, type: 3}
  m_Name: 157-SET_CAM_BG
  m_EditorClassIdentifier: 
  url: https://firebasestorage.googleapis.com/v0/b/nasan-si-lola.appspot.com/o/baul.jpg?alt=media&token=df461386-ce58-453f-b2b2-14be491b3611
