%YAML 1.1
%TAG !u! tag:unity3d.com,2011:
--- !u!114 &11400000
MonoBehaviour:
  m_ObjectHideFlags: 0
  m_CorrespondingSourceObject: {fileID: 0}
  m_PrefabInstance: {fileID: 0}
  m_PrefabAsset: {fileID: 0}
  m_GameObject: {fileID: 0}
  m_Enabled: 1
  m_EditorHideFlags: 0
  m_Script: {fileID: 11500000, guid: 9e81c6dca818c4380b333af7866a766a, type: 3}
  m_Name: 170-PLAY_AUDIO
  m_EditorClassIdentifier: 
  id: https://firebasestorage.googleapis.com/v0/b/nasan-si-lola.appspot.com/o/lola.mp3?alt=media&token=d8e95717-2936-4028-b68e-eb353b8773d6
