%YAML 1.1
%TAG !u! tag:unity3d.com,2011:
--- !u!114 &11400000
MonoBehaviour:
  m_ObjectHideFlags: 0
  m_CorrespondingSourceObject: {fileID: 0}
  m_PrefabInstance: {fileID: 0}
  m_PrefabAsset: {fileID: 0}
  m_GameObject: {fileID: 0}
  m_Enabled: 1
  m_EditorHideFlags: 0
  m_Script: {fileID: 11500000, guid: 20f97dbb6ea294c74afbe045aeef1fd8, type: 3}
  m_Name: 184-CHAT_OUT
  m_EditorClassIdentifier: 
  receiver: 0
  message1: Ako pala yung manananggal
  message2: nag-iibang anyo ako pag gabi
  answer: -1
  date: Jan 03
  time: 10:14 AM
