%YAML 1.1
%TAG !u! tag:unity3d.com,2011:
--- !u!114 &11400000
MonoBehaviour:
  m_ObjectHideFlags: 0
  m_CorrespondingSourceObject: {fileID: 0}
  m_PrefabInstance: {fileID: 0}
  m_PrefabAsset: {fileID: 0}
  m_GameObject: {fileID: 0}
  m_Enabled: 1
  m_EditorHideFlags: 0
  m_Script: {fileID: 11500000, guid: 20f97dbb6ea294c74afbe045aeef1fd8, type: 3}
  m_Name: 204-CHAT_OUT
  m_EditorClassIdentifier: 
  receiver: 0
  message1: eto. nageenjoy sa probinsya
  message2: eto tumutulong kay lola sa trabaho
  answer: -1
  date: Jan 10
  time: 1:16 PM
